fft_chk/FFT.vcd
$date
	Wed Dec 14 06:39:47 2022
$end
$version
	Icarus Verilog
$end
$timescale
	10ps
$end
$scope module tb $end
$var wire 1 ! out_valid $end
$var wire 16 " dout_r [15:0] $end
$var wire 16 # dout_i [15:0] $end
$var parameter 32 $ FFT_size $end
$var parameter 32 % IN_width $end
$var parameter 32 & OUT_width $end
$var real 1 ' cycle $end
$var parameter 32 ( dataset $end
$var parameter 32 ) latency_limit $end
$var reg 1 * clk $end
$var reg 12 + din_i [11:0] $end
$var reg 12 , din_r [11:0] $end
$var reg 17 - gold_i [16:0] $end
$var reg 17 . gold_r [16:0] $end
$var reg 1 / in_valid $end
$var reg 32 0 noise [31:0] $end
$var reg 32 1 noise_energy [31:0] $end
$var reg 1 2 rst_n $end
$var reg 32 3 signal [31:0] $end
$var reg 32 4 signal_energy [31:0] $end
$var integer 32 5 SNR_ratio [31:0] $end
$var integer 32 6 fp_i [31:0] $end
$var integer 32 7 fp_r [31:0] $end
$var integer 32 8 i [31:0] $end
$var integer 32 9 int_i [31:0] $end
$var integer 32 : int_r [31:0] $end
$var integer 32 ; j [31:0] $end
$var integer 32 < latency [31:0] $end
$var integer 32 = latency_total [31:0] $end
$upscope $end
$enddefinitions $end
$comment Show the parameter values. $end
$dumpall
b1000100 )
b101 (
r10 '
b10000 &
b1100 %
b100000 $
$end
#0
$dumpvars
b0 =
b0 <
bx ;
bx :
bx 9
b0 8
b10000000000000000000000000000011 7
b10000000000000000000000000000100 6
bx 5
b0 4
bx 3
12
b0 1
bx 0
0/
bx .
bx -
bx ,
bx +
0*
bx #
bx "
x!
$end
#500
1*
#1000
0*
#1500
1*
#2000
b0 #
b0 "
0!
02
0*
#2500
1*
#3000
12
0*
#3500
1*
#4000
b0 ;
0*
#4500
1*
#5000
b1 ;
b1 9
b100010100100 +
b1 :
b0 ,
1/
0*
#5500
1*
#6000
b10 ;
b11010001010 +
b100101011100 ,
0*
#6500
1*
#7000
b11 ;
b100000110 +
b100110111011 ,
0*
#7500
1*
#8000
b100 ;
b10000011100 +
b110011100 ,
0*
#8500
1*
#9000
b101 ;
b111111111010 +
b10101010011 ,
0*
#9500
1*
#10000
b110 ;
b11100011010 +
b111110001101 ,
0*
#10500
1*
#11000
b111 ;
b111111011100 +
b111100101111 ,
0*
#11500
1*
#12000
b1000 ;
b100001110100 +
b100010101 ,
0*
#12500
1*
#13000
b1001 ;
b111100110101 +
b101111101 ,
0*
#13500
1*
#14000
b1010 ;
b100111001001 +
b1011100000 ,
0*
#14500
1*
#15000
b1011 ;
b100100100000 +
b101111000010 ,
0*
#15500
1*
#16000
b1100 ;
b101111 +
b101010 ,
0*
#16500
1*
#17000
b1101 ;
b101010001011 +
b10101000010 ,
0*
#17500
1*
#18000
b1110 ;
b111101101111 +
b11101100001 ,
0*
#18500
1*
#19000
b1111 ;
b111111101000 +
b110000101110 ,
0*
#19500
1*
#20000
b10000 ;
b110100011001 +
b1100000 ,
0*
#20500
1*
#21000
b10001 ;
b1110100 +
b111100011101 ,
0*
#21500
1*
#22000
b10010 ;
b11000111100 +
b101001111111 ,
0*
#22500
1*
#23000
b10011 ;
b111110011110 +
b11110111011 ,
0*
#23500
1*
#24000
b10100 ;
b101000100011 +
b111000100011 ,
0*
#24500
1*
#25000
b10101 ;
b1010101001 +
b100101011 ,
0*
#25500
1*
#26000
b10110 ;
b1111101010 +
b110100010001 ,
0*
#26500
1*
#27000
b10111 ;
b101000101100 +
b11000011011 ,
0*
#27500
1*
#28000
b11000 ;
b101001000111 +
b110000111000 ,
0*
#28500
1*
#29000
b11001 ;
b1111001 +
b100111110000 ,
0*
#29500
1*
#30000
b11010 ;
b1010110 +
b110100101101 ,
0*
#30500
1*
#31000
b11011 ;
b110001001 +
b111000011100 ,
0*
#31500
1*
#32000
b11100 ;
b111111001111 +
b100100001011 ,
0*
#32500
1*
#33000
b11101 ;
b100010001010 +
b11111111011 ,
0*
#33500
1*
#34000
b11110 ;
b1001101101 +
b110111110001 ,
0*
#34500
1*
#35000
b11111 ;
b1010100000 +
b110101000011 ,
0*
#35500
1*
#36000
b100000 ;
b11111110000 +
b10111011110 ,
0*
#36500
1*
#37000
0/
0*
#37500
1*
#38000
b1 <
0*
#38500
1*
#39000
b10 <
0*
#39500
1*
#40000
b11 <
0*
#40500
1*
#41000
b100 <
0*
#41500
1*
#42000
b101 <
0*
#42500
1*
#43000
b110 <
0*
#43500
1*
#44000
b111 <
0*
#44500
1*
#45000
b1000 <
0*
#45500
1*
#46000
b1001 <
0*
#46500
1*
#47000
b1010 <
0*
#47500
1*
#48000
b1011 <
0*
#48500
1*
#49000
b1100 <
0*
#49500
1*
#50000
b1101 <
0*
#50500
1*
#51000
b1110 <
0*
#51500
1*
#52000
b1111 <
0*
#52500
1*
#53000
b10000 <
0*
#53500
1*
#54000
b10001 <
0*
#54500
1*
#55000
b10010 <
0*
#55500
1*
#56000
b10011 <
0*
#56500
1*
#57000
b10100 <
0*
#57500
1*
#58000
b10101 <
0*
#58500
1*
#59000
b10110 <
0*
#59500
1*
#60000
b10111 <
0*
#60500
1*
#61000
b11000 <
0*
#61500
1*
#62000
b11001 <
0*
#62500
1*
#63000
b11010 <
0*
#63500
1*
#64000
b11011 <
0*
#64500
1*
#65000
b11100 <
0*
#65500
1*
#66000
b11101 <
0*
#66500
1*
#67000
b11110 <
0*
#67500
1*
#68000
b11111 <
0*
#68500
1*
#69000
b100000 <
0*
#69500
b1111000000100001 #
b1111101010101011 "
1!
1*
#70000
b0 0
b1000110000101001001111010 4
b11111111111111111111000000100001 3
b11111000000100001 -
b11111101010101011 .
b0 ;
b100001 <
0*
#70500
b1111011101 #
b1110110001101001 "
1*
#71000
b11001010 1
b11111111111111111111111111110101 0
b10101001010100110110000010 4
b1111010010 3
b1111010010 -
b11110110001110010 .
b1 ;
0*
#71500
b10010011001001 #
b1100001000100 "
1*
#72000
b1000110111 1
b11111111111111111111111111101101 0
b1010001101010110111111101010 4
b10010010110110 3
b10010010110110 -
b1100001000010 .
b10 ;
0*
#72500
b1000010 #
b111001100100 "
1*
#73000
b1001101000 1
b0 0
b1011000000111100111010110111 4
b1000010 3
b1000010 -
b111001011101 .
b11 ;
0*
#73500
b111100001111 #
b1110001101110110 "
1*
#74000
b1111000101010000101111111100 4
b111100001111 3
b111100001111 -
b11110001101110110 .
b100 ;
0*
#74500
b111101010110 #
b1111001011101000 "
1*
#75000
b1011100010 1
b11111111111111111111111111110101 0
b10000101010100100010000000110 4
b111101001011 3
b111101001011 -
b11111001011101001 .
b101 ;
0*
#75500
b10110101111 #
b1110001101111100 "
1*
#76000
b10100110011 1
b11111111111111111111111111101001 0
b10011111101001110101001010110 4
b10110011000 3
b10110011000 -
b11110001110000100 .
b110 ;
0*
#76500
b100100110111 #
b11011000111 "
1*
#77000
b10101000101 1
b11111111111111111111111111111101 0
b10100011101110110001011110110 4
b100100110100 3
b100100110100 -
b11011000100 .
b111 ;
0*
#77500
b1111110101001000 #
b11000111111010 "
1*
#78000
b0 0
b11110010000000110111101011010 4
b11111111111111111111110101001000 3
b11111110101001000 -
b11000111111010 .
b1000 ;
0*
#78500
b1110101000000100 #
b11100010110 "
1*
#79000
b10111010110 1
b1000 0
b100000010101000001011010010011 4
b11111111111111111110101000001100 3
b11110101000001100 -
b11100001101 .
b1001 ;
0*
#79500
b1111111000101010 #
b10010011011111 "
1*
#80000
b11000010000 1
b11111111111111111111111111111101 0
b100101101001001111011011000100 4
b11111111111111111111111000100111 3
b11111111000100111 -
b10010011011000 .
b1010 ;
0*
#80500
b101110111010 #
b1110011101110011 "
1*
#81000
b11010110100 1
b11111111111111111111111111110110 0
b101000100001101100010011011101 4
b101110110000 3
b101110110000 -
b11110011101111011 .
b1011 ;
0*
#81500
b1100111011101 #
b1110101011011001 "
1*
#82000
b11010110110 1
b1 0
b101100111000110010001100000101 4
b1100111011110 3
b1100111011110 -
b11110101011011010 .
b1100 ;
0*
#82500
b1101101110101000 #
b1111100110001101 "
1*
#83000
b11101101000 1
b1101 0
b110010001100100000111101100010 4
b11111111111111111101101110110101 3
b11101101110110101 -
b11111100110001010 .
b1101 ;
0*
#83500
b1111011011000010 #
b1111011100001110 "
1*
#84000
b11101110010 1
b11 0
b110010110101110011010111011100 4
b11111111111111111111011011000101 3
b11111011011000101 -
b11111011100001111 .
b1110 ;
0*
#84500
b1100011111001101 #
b1111110011010000 "
1*
#85000
b100100111011 1
b10101 0
b111111001011100110100011110000 4
b11111111111111111100011111100010 3
b11100011111100010 -
b11111110011010100 .
b1111 ;
0*
#85500
b1101110010010101 #
b1010111111101 "
1*
#86000
b0 0
b1000101111110000101001110110010 4
b11111111111111111101110010010101 3
b11101110010010101 -
b1010111111101 .
b10000 ;
0*
#86500
b1111100110 #
b1111101000100010 "
1*
#87000
b100101101111 1
b11111111111111111111111111111100 0
b1000110001010011000110101110110 4
b1111100010 3
b1111100010 -
b11111101000101000 .
b10001 ;
0*
#87500
b1101010010000100 #
b10010100011 "
1*
#88000
b101011011100 1
b10011 0
b1001101100110111001000011100000 4
b11111111111111111101010010010111 3
b11101010010010111 -
b10010100101 .
b10010 ;
0*
#88500
b110101111 #
b1110100101101101 "
1*
#89000
b101101001001 1
b11 0
b1001111100110100100010111110101 4
b110110010 3
b110110010 -
b11110100101110111 .
b10011 ;
0*
#89500
b1111110111011010 #
b1110011110100001 "
1*
#90000
b0 0
b1010001111100001101011011011010 4
b11111111111111111111110111011010 3
b11111110111011010 -
b11110011110100001 .
b10100 ;
0*
#90500
b11001011100 #
b10010100110 "
1*
#91000
b110001110011 1
b11111111111111111111111111101111 0
b1010010001011100010100001100100 4
b11001001011 3
b11001001011 -
b10010101001 .
b10101 ;
0*
#91500
b1010111110101111 #
b11100111011 "
1*
#92000
b111001101100 1
b10101 0
b1101011100001111000101010011101 4
b11111111111111111010111111000100 3
b11010111111000100 -
b11100110011 .
b10110 ;
0*
#92500
b1111101111110000 #
b1110110010100 "
1*
#93000
b111010010001 1
b11111111111111111111111111111111 0
b1101111000000011000111010000010 4
b11111111111111111111101111101111 3
b11111101111101111 -
b1110110001110 .
b10111 ;
0*
#93500
b1110111111111010 #
b1111011001110010 "
1*
#94000
b0 0
b1110000010111011001100101101010 4
b11111111111111111110111111111010 3
b11110111111111010 -
b11111011001110010 .
b11000 ;
0*
#94500
b1011111101110011 #
b10001001100001 "
1*
#95000
b111011100110 1
b111 0
b10000101001111010010101111100111 4
b11111111111111111011111101111010 3
b11011111101111010 -
b10001001011011 .
b11001 ;
0*
#95500
b100100101011 #
b101100110000 "
1*
#96000
b111100110110 1
b100 0
b10000110000011110101111011001000 4
b100100101111 3
b100100101111 -
b101100111000 .
b11010 ;
0*
#96500
b1111101001111011 #
b1001111110110 "
1*
#97000
b111111110111 1
b111 0
b10000111101110100001101010110000 4
b11111111111111111111101010000010 3
b11111101010000010 -
b1001111101010 .
b11011 ;
0*
#97500
b1110010101110000 #
b1110010101001010 "
1*
#98000
b111111111001 1
b11111111111111111111111111111111 0
b10001101010001011000111110100010 4
b11111111111111111110010101101111 3
b11110010101101111 -
b11110010101001001 .
b11100 ;
0*
#98500
b1110001010000000 #
b1111101111010111 "
1*
#99000
b1000011000001 1
b1110 0
b10010000101110011111010110011111 4
b11111111111111111110001010001110 3
b11110001010001110 -
b11111101111010101 .
b11101 ;
0*
#99500
b1111010001011 #
b1110111011000010 "
1*
#100000
b1000011000110 1
b11111111111111111111111111111110 0
b10010101100001111100100001110001 4
b1111010001001 3
b1111010001001 -
b11110111011000001 .
b11110 ;
0*
#100500
b10100011001010 #
b1111110011001111 "
1*
#101000
b1001000001011 1
b11111111111111111111111111101111 0
b10011100000011000010011101011011 4
b10100010111001 3
b10100010111001 -
b11111110011010101 .
b11111 ;
0*
#101500
b1111011101 #
b1110110001101001 "
1*
#102000
b0 1
b0 4
b1 8
b100001 =
b10001010011000001110 5
b100000 ;
0*
#102500
1*
#103000
0*
#103500
b10010011001001 #
b1100001000100 "
1*
#104000
b0 #
b0 "
0!
02
0*
#104500
1*
#105000
12
0*
#105500
1*
#106000
b0 ;
0*
#106500
1*
#107000
b1 ;
b101001101101 +
b11000000000 ,
1/
0*
#107500
1*
#108000
b10 ;
b110000110011 +
b1001010000 ,
0*
#108500
1*
#109000
b11 ;
b11101001000 +
b101101000110 ,
0*
#109500
1*
#110000
b100 ;
b11001010100 +
b11110101010 ,
0*
#110500
1*
#111000
b101 ;
b111101000 +
b111100110011 ,
0*
#111500
1*
#112000
b110 ;
b101001111110 +
b1001111110 ,
0*
#112500
1*
#113000
b111 ;
b10000010010 +
b111110100011 ,
0*
#113500
1*
#114000
b1000 ;
b11001101100 +
b111000100101 ,
0*
#114500
1*
#115000
b1001 ;
b101111110011 +
b11011011001 ,
0*
#115500
1*
#116000
b1010 ;
b10001000101 +
b100000011010 ,
0*
#116500
1*
#117000
b1011 ;
b1101100001 +
b1011000101 ,
0*
#117500
1*
#118000
b1100 ;
b101110 +
b110100010000 ,
0*
#118500
1*
#119000
b1101 ;
b11100001101 +
b110001001011 ,
0*
#119500
1*
#120000
b1110 ;
b100101001010 +
b11110000110 ,
0*
#120500
1*
#121000
b1111 ;
b10111101111 +
b10001100100 ,
0*
#121500
1*
#122000
b10000 ;
b11000110011 +
b1001010000 ,
0*
#122500
1*
#123000
b10001 ;
b11011010100 +
b1000101100 ,
0*
#123500
1*
#124000
b10010 ;
b100010000101 +
b101100001100 ,
0*
#124500
1*
#125000
b10011 ;
b101101010101 +
b11010110101 ,
0*
#125500
1*
#126000
b10100 ;
b100010100001 +
b111111110100 ,
0*
#126500
1*
#127000
b10101 ;
b100100011011 +
b100011000100 ,
0*
#127500
1*
#128000
b10110 ;
b1000101001 +
b11000011000 ,
0*
#128500
1*
#129000
b10111 ;
b1111001010 +
b11000110110 ,
0*
#129500
1*
#130000
b11000 ;
b10101100110 +
b1011101 ,
0*
#130500
1*
#131000
b11001 ;
b111101011001 +
b110001000101 ,
0*
#131500
1*
#132000
b11010 ;
b100100010111 +
b100101010010 ,
0*
#132500
1*
#133000
b11011 ;
b110001001010 +
b11101100001 ,
0*
#133500
1*
#134000
b11100 ;
b101111010110 +
b101101000100 ,
0*
#134500
1*
#135000
b11101 ;
b100001111110 +
b111011100010 ,
0*
#135500
1*
#136000
b11110 ;
b100110100010 +
b1110010000 ,
0*
#136500
1*
#137000
b11111 ;
b101100011000 +
b10000110111 ,
0*
#137500
1*
#138000
b100000 ;
b110110100000 +
b110110100011 ,
0*
#138500
1*
#139000
b0 <
0/
0*
#139500
1*
#140000
b1 <
0*
#140500
1*
#141000
b10 <
0*
#141500
1*
#142000
b11 <
0*
#142500
1*
#143000
b100 <
0*
#143500
1*
#144000
b101 <
0*
#144500
1*
#145000
b110 <
0*
#145500
1*
#146000
b111 <
0*
#146500
1*
#147000
b1000 <
0*
#147500
1*
#148000
b1001 <
0*
#148500
1*
#149000
b1010 <
0*
#149500
1*
#150000
b1011 <
0*
#150500
1*
#151000
b1100 <
0*
#151500
1*
#152000
b1101 <
0*
#152500
1*
#153000
b1110 <
0*
#153500
1*
#154000
b1111 <
0*
#154500
1*
#155000
b10000 <
0*
#155500
1*
#156000
b10001 <
0*
#156500
1*
#157000
b10010 <
0*
#157500
1*
#158000
b10011 <
0*
#158500
1*
#159000
b10100 <
0*
#159500
1*
#160000
b10101 <
0*
#160500
1*
#161000
b10110 <
0*
#161500
1*
#162000
b10111 <
0*
#162500
1*
#163000
b11000 <
0*
#163500
1*
#164000
b11001 <
0*
#164500
1*
#165000
b11010 <
0*
#165500
1*
#166000
b11011 <
0*
#166500
1*
#167000
b11100 <
0*
#167500
1*
#168000
b11101 <
0*
#168500
1*
#169000
b11110 <
0*
#169500
1*
#170000
b11111 <
0*
#170500
1*
#171000
b100000 <
0*
#171500
b1110111010001011 #
b1100111011110 "
1!
1*
#172000
b0 0
b11110011011101101111111101 4
b11111111111111111110111010001011 3
b11110111010001011 -
b1100111011110 .
b0 ;
b100001 <
0*
#172500
b1110100110011110 #
b11000011010111 "
1*
#173000
b11000010 1
b11111111111111111111111111110011 0
b1111000110000101110100101110 4
b11111111111111111110100110010001 3
b11110100110010001 -
b11000011011100 .
b1 ;
0*
#173500
b1110110001001001 #
b10001001001010 "
1*
#174000
b1111 0
b1001001100 1
b10101001011101111110111110111 4
b11111111111111111110110001011000 3
b11110110001011000 -
b10001000111101 .
b10 ;
0*
#174500
b1001100100 #
b11000101100100 "
1*
#175000
b1010110000 1
b0 0
b11110101110000100100010101011 4
b1001100100 3
b1001100100 -
b11000101011010 .
b11 ;
0*
#175500
b10110110111100 #
b1110100110010000 "
1*
#176000
b1010110101 1
b1 0
b101000110111000001000011111000 4
b10110110111101 3
b10110110111101 -
b11110100110001110 .
b100 ;
0*
#176500
b1100011111011100 #
b1000100100101 "
1*
#177000
b1100110010 1
b10 0
b110110010011110110110000100000 4
b11111111111111111100011111011110 3
b11100011111011110 -
b1000100011010 .
b101 ;
0*
#177500
b100001001111 #
b1110001010 "
1*
#178000
b1101011111 1
b11 0
b110110101000010101011101100100 4
b100001010010 3
b100001010010 -
b1110010000 .
b110 ;
0*
#178500
b1010011000 #
b111110111100 "
1*
#179000
b1111001100 1
b11111111111111111111111111111101 0
b110111100111100101100111100001 4
b1010010101 3
b1010010101 -
b111110110010 .
b111 ;
0*
#179500
b1110011111100011 #
b1011101011100010 "
1*
#180000
b0 0
b1001100100011001111110010101110 4
b11111111111111111110011111100011 3
b11110011111100011 -
b11011101011100010 .
b1000 ;
0*
#180500
b1101110001000010 #
b1010100001001 "
1*
#181000
b1111101001 1
b101 0
b1010011010000111110011011011000 4
b11111111111111111101110001000111 3
b11101110001000111 -
b1010100001011 .
b1001 ;
0*
#181500
b1111111101110100 #
b1101010101 "
1*
#182000
b10001001011 1
b111 0
b1010011010011110001011110110101 4
b11111111111111111111111101111011 3
b11111111101111011 -
b1101001110 .
b1010 ;
0*
#182500
b111101011 #
b1110010111101 "
1*
#183000
b10001111000 1
b11111111111111111111111111111101 0
b1010110100010110100010011000110 4
b111101000 3
b111101000 -
b1110010110111 .
b1011 ;
0*
#183500
b100001010001 #
b10110100001011 "
1*
#184000
b0 0
b1011110101111010100110011100000 4
b100001010001 3
b100001010001 -
b10110100001011 .
b1100 ;
0*
#184500
b1101000100111001 #
b1101011001110111 "
1*
#185000
b10100010101 1
b11111111111111111111111111111010 0
b1101110000001010011011100001101 4
b11111111111111111101000100110011 3
b11101000100110011 -
b11101011010000010 .
b1101 ;
0*
#185500
b1111101001101000 #
b1111011100011101 "
1*
#186000
b10100111001 1
b0 0
b1101110011100110001000000010110 4
b11111111111111111111101001101000 3
b11111101001101000 -
b11111011100100011 .
b1110 ;
0*
#186500
b1110101001100110 #
b1111001010011101 "
1*
#187000
b10110101101 1
b1010 0
b1110000111101101100101001010111 4
b11111111111111111110101001110000 3
b11110101001110000 -
b11111001010100001 .
b1111 ;
0*
#187500
b1011000000001 #
b1100000101000 "
1*
#188000
b0 0
b1110101001000100111110010011000 4
b1011000000001 3
b1011000000001 -
b1100000101000 .
b10000 ;
0*
#188500
b1111010100000010 #
b10111100111 "
1*
#189000
b10110101110 1
b0 0
b1110101101111100001101101000000 4
b11111111111111111111010100000010 3
b11111010100000010 -
b10111100110 .
b10001 ;
0*
#189500
b11000000000000 #
b1110010011101110 "
1*
#190000
b11100011011 1
b11111111111111111111111111110010 0
b10000001100100101110101000011101 4
b10111111110010 3
b10111111110010 -
b11110010011111011 .
b10010 ;
0*
#190500
b1011001011100 #
b1000010010000 "
1*
#191000
b11101100011 1
b11111111111111111111111111111010 0
b10000100100110001110011011100101 4
b1011001010110 3
b1011001010110 -
b1000010010110 .
b10011 ;
0*
#191500
b1101101011100111 #
b11100110000101 "
1*
#192000
b11101101000 1
b11111111111111111111111111111111 0
b10010110111001101101001010111010 4
b11111111111111111101101011100110 3
b11101101011100110 -
b11100110000111 .
b10100 ;
0*
#192500
b1011010010101 #
b1110101110111001 "
1*
#193000
b100000000101 1
b11111111111111111111111111111010 0
b10011010100000001010000011011111 4
b1011010001111 3
b1011010001111 -
b11110101110101110 .
b10101 ;
0*
#193500
b1001000100000 #
b10010100011011 "
1*
#194000
b11111111111111111111111111111110 0
b100000101101 1
b10100001001001111111000000011100 4
b1001000011110 3
b1001000011110 -
b10010100010101 .
b10110 ;
0*
#194500
b1011110001111 #
b10000010010010 "
1*
#195000
b101001110111 1
b11111111111111111111111111110001 0
b10100111011100000010111100011101 4
b1011110000000 3
b1011110000000 -
b10000001111111 .
b10111 ;
0*
#195500
b1110111111111101 #
b110011010000 "
1*
#196000
b0 0
b10101001000101001011100000100110 4
b11111111111111111110111111111101 3
b11110111111111101 -
b110011010000 .
b11000 ;
0*
#196500
b1100111000001000 #
b1000110000100 "
1*
#197000
b101010111000 1
b111 0
b10110100000001010001110100000111 4
b11111111111111111100111000001111 3
b11100111000001111 -
b1000110000000 .
b11001 ;
0*
#197500
b100011101101 #
b1111011110001001 "
1*
#198000
b11111111111111111111111111111001 0
b101100011010 1
b10110100100110110111110010101011 4
b100011100110 3
b100011100110 -
b11111011110010000 .
b11010 ;
0*
#198500
b1110001101110001 #
b1110011011000000 "
1*
#199000
b101111111011 1
b1001 0
b10111010010001000100010101011111 4
b11111111111111111110001101111010 3
b11110001101111010 -
b11110011011001100 .
b11011 ;
0*
#199500
b1111011100000110 #
b1000001110110 "
1*
#200000
b0 0
b10111011101000111100111111100111 4
b11111111111111111111011100000110 3
b11111011100000110 -
b1000001110110 .
b11100 ;
0*
#200500
b111110010000 #
b1101001011001100 "
1*
#201000
b110010011111 1
b1010 0
b11000100100011111011100000011011 4
b111110011010 3
b111110011010 -
b11101001011010100 .
b11101 ;
0*
#201500
b1111011000100010 #
b11010010100 "
1*
#202000
b110011010000 1
b0 0
b11000101000110111111111001001000 4
b11111111111111111111011000100010 3
b11111011000100010 -
b11010001101 .
b11110 ;
0*
#202500
b1110111010111011 #
b1101000101110000 "
1*
#203000
b111100100001 1
b1000 0
b11001110101101001101110000000010 4
b11111111111111111110111011000011 3
b11110111011000011 -
b11101000110000111 .
b11111 ;
0*
#203500
b1110100110011110 #
b11000011010111 "
1*
#204000
b0 1
b0 4
b10 8
b1000010 =
b11011010100110111011 5
b100000 ;
0*
#204500
1*
#205000
0*
#205500
b1110110001001001 #
b10001001001010 "
1*
#206000
b0 #
b0 "
0!
02
0*
#206500
1*
#207000
12
0*
#207500
1*
#208000
b0 ;
0*
#208500
1*
#209000
b1 ;
b110000110110 +
b110000000000 ,
1/
0*
#209500
1*
#210000
b10 ;
b1111011101 +
b110101000100 ,
0*
#210500
1*
#211000
b11 ;
b111110001011 +
b101011010001 ,
0*
#211500
1*
#212000
b100 ;
b100010001101 +
b111110111001 ,
0*
#212500
1*
#213000
b101 ;
b10111010110 +
b100100010011 ,
0*
#213500
1*
#214000
b110 ;
b111100010 +
b10101101110 ,
0*
#214500
1*
#215000
b111 ;
b100001001000 +
b111000010110 ,
0*
#215500
1*
#216000
b1000 ;
b10001100101 +
b110100110101 ,
0*
#216500
1*
#217000
b1001 ;
b11010110001 +
b110000110101 ,
0*
#217500
1*
#218000
b1010 ;
b11000000 +
b111101010100 ,
0*
#218500
1*
#219000
b1011 ;
b110110100010 +
b101111000111 ,
0*
#219500
1*
#220000
b1100 ;
b101101 +
b100111110110 ,
0*
#220500
1*
#221000
b1101 ;
b10110001111 +
b11101010101 ,
0*
#221500
1*
#222000
b1110 ;
b1100100101 +
b10110101011 ,
0*
#222500
1*
#223000
b1111 ;
b101111110111 +
b110010011010 ,
0*
#223500
1*
#224000
b10000 ;
b1101001100 +
b1001000001 ,
0*
#224500
1*
#225000
b10001 ;
b110100110101 +
b100100111011 ,
0*
#225500
1*
#226000
b10010 ;
b100011001110 +
b110110011000 ,
0*
#226500
1*
#227000
b10011 ;
b10100001100 +
b11110101111 ,
0*
#227500
1*
#228000
b10100 ;
b11100011110 +
b110111000110 ,
0*
#228500
1*
#229000
b10101 ;
b110001110 +
b1011101 ,
0*
#229500
1*
#230000
b10110 ;
b1001101000 +
b100100000 ,
0*
#230500
1*
#231000
b10111 ;
b100101100111 +
b11001010010 ,
0*
#231500
1*
#232000
b11000 ;
b110010000101 +
b10010000011 ,
0*
#232500
1*
#233000
b11001 ;
b111000111001 +
b10011001 ,
0*
#233500
1*
#234000
b11010 ;
b111111011000 +
b11101110111 ,
0*
#234500
1*
#235000
b11011 ;
b100100001010 +
b110010100110 ,
0*
#235500
1*
#236000
b11100 ;
b11111011110 +
b110101111110 ,
0*
#236500
1*
#237000
b11101 ;
b11001110011 +
b100111001010 ,
0*
#237500
1*
#238000
b11110 ;
b111011010110 +
b100100101111 ,
0*
#238500
1*
#239000
b11111 ;
b10110001111 +
b110100101011 ,
0*
#239500
1*
#240000
b100000 ;
b1101010001 +
b10101101001 ,
0*
#240500
1*
#241000
b0 <
0/
0*
#241500
1*
#242000
b1 <
0*
#242500
1*
#243000
b10 <
0*
#243500
1*
#244000
b11 <
0*
#244500
1*
#245000
b100 <
0*
#245500
1*
#246000
b101 <
0*
#246500
1*
#247000
b110 <
0*
#247500
1*
#248000
b111 <
0*
#248500
1*
#249000
b1000 <
0*
#249500
1*
#250000
b1001 <
0*
#250500
1*
#251000
b1010 <
0*
#251500
1*
#252000
b1011 <
0*
#252500
1*
#253000
b1100 <
0*
#253500
1*
#254000
b1101 <
0*
#254500
1*
#255000
b1110 <
0*
#255500
1*
#256000
b1111 <
0*
#256500
1*
#257000
b10000 <
0*
#257500
1*
#258000
b10001 <
0*
#258500
1*
#259000
b10010 <
0*
#259500
1*
#260000
b10011 <
0*
#260500
1*
#261000
b10100 <
0*
#261500
1*
#262000
b10101 <
0*
#262500
1*
#263000
b10110 <
0*
#263500
1*
#264000
b10111 <
0*
#264500
1*
#265000
b11000 <
0*
#265500
1*
#266000
b11001 <
0*
#266500
1*
#267000
b11010 <
0*
#267500
1*
#268000
b11011 <
0*
#268500
1*
#269000
b11100 <
0*
#269500
1*
#270000
b11101 <
0*
#270500
1*
#271000
b11110 <
0*
#271500
1*
#272000
b11111 <
0*
#272500
1*
#273000
b100000 <
0*
#273500
b1001011111000 #
b1110101100010110 "
1!
1*
#274000
b0 0
b11000111010011011000100100 4
b1001011111000 3
b1001011111000 -
b11110101100010110 .
b0 ;
b100001 <
0*
#274500
b1100101110111 #
b1110101011100100 "
1*
#275000
b1000001 1
b11111111111111111111111111111100 0
b111011000010101001110000110 4
b1100101110011 3
b1100101110011 -
b11110101011101011 .
b1 ;
0*
#275500
b1111101001000001 #
b1110001010010010 "
1*
#276000
b1111110 1
b101 0
b1010111000101101100011101010 4
b11111111111111111111101001000110 3
b11111101001000110 -
b11110001010011000 .
b10 ;
0*
#276500
b1110101100001110 #
b1110110110011011 "
1*
#277000
b111011111 1
b1000 0
b1101111010000010101001011110 4
b11111111111111111110101100010110 3
b11110101100010110 -
b11110110110101100 .
b11 ;
0*
#277500
b1111100011001001 #
b10100010101 "
1*
#278000
b0 0
b1110001101100000101111101000 4
b11111111111111111111100011001001 3
b11111100011001001 -
b10100010101 .
b100 ;
0*
#278500
b10111110000001 #
b10100001100000 "
1*
#279000
b1011010000 1
b100 0
b11101011010110000011100100010 4
b10111110000101 3
b10111110000101 -
b10100001101111 .
b101 ;
0*
#279500
b1110100110000101 #
b1111010010111110 "
1*
#280000
b1111010100 1
b11111111111111111111111111110000 0
b11111111001011100011010011011 4
b11111111111111111110100101110101 3
b11110100101110101 -
b11111010011000000 .
b110 ;
0*
#280500
b10011001111001 #
b111000000100 "
1*
#281000
b10111000001 1
b11111111111111111111111111101110 0
b100110011010111000100001011101 4
b10011001100111 3
b10011001100111 -
b110111110111 .
b111 ;
0*
#281500
b1101010001001 #
b1110011111001001 "
1*
#282000
b0 0
b101011011101100000000101111111 4
b1101010001001 3
b1101010001001 -
b11110011111001001 .
b1000 ;
0*
#282500
b1111001110101100 #
b1000010101010 "
1*
#283000
b11000100010 1
b100 0
b101101001000100001111111000000 4
b11111111111111111111001110110000 3
b11111001110110000 -
b1000010100001 .
b1001 ;
0*
#283500
b100001001 #
b1110111110111011 "
1*
#284000
b11001001011 1
b11111111111111111111111111111100 0
b101110001010110011100111011001 4
b100000101 3
b100000101 -
b11110111111000000 .
b1010 ;
0*
#284500
b1100110001000100 #
b1111010100100 "
1*
#285000
b11110001000 1
b1110 0
b111100010000100011101110001110 4
b11111111111111111100110001010010 3
b11100110001010010 -
b1111010011001 .
b1011 ;
0*
#285500
b1111111101001000 #
b1101110101100011 "
1*
#286000
b11110001001 1
b1 0
b1000000111100001101001010101000 4
b11111111111111111111111101001001 3
b11111111101001001 -
b11101110101100011 .
b1100 ;
0*
#286500
b1110011011011000 #
b1111111011111 "
1*
#287000
b11111100010 1
b1000 0
b1000111010111101001110001001100 4
b11111111111111111110011011100000 3
b11110011011100000 -
b1111111011010 .
b1101 ;
0*
#287500
b110100011100 #
b1111101011011111 "
1*
#288000
b11111110100 1
b11111111111111111111111111111101 0
b1001000001001000101100001000001 4
b110100011001 3
b110100011001 -
b11111101011100010 .
b1110 ;
0*
#288500
b1111110101011000 #
b1101110101000000 "
1*
#289000
b100001010101 1
b1001 0
b1001100111000011011000100010010 4
b11111111111111111111110101100001 3
b11111110101100001 -
b11101110101000100 .
b1111 ;
0*
#289500
b1110110101101110 #
b1110000001001110 "
1*
#290000
b0 0
b1010010001001110010010000011010 4
b11111111111111111110110101101110 3
b11110110101101110 -
b11110000001001110 .
b10000 ;
0*
#290500
b101000100010 #
b1111000101100000 "
1*
